%!PS-Adobe-3.0 EPSF-3.0
%%Creator: cairo 1.14.8 (http://cairographics.org)
%%CreationDate: Sun Mar 24 16:27:14 2019
%%Pages: 1
%%DocumentData: Clean7Bit
%%LanguageLevel: 2
%%BoundingBox: 0 -1 1228 665
%%EndComments
%%BeginProlog
save
50 dict begin
/q { gsave } bind def
/Q { grestore } bind def
/cm { 6 array astore concat } bind def
/w { setlinewidth } bind def
/J { setlinecap } bind def
/j { setlinejoin } bind def
/M { setmiterlimit } bind def
/d { setdash } bind def
/m { moveto } bind def
/l { lineto } bind def
/c { curveto } bind def
/h { closepath } bind def
/re { exch dup neg 3 1 roll 5 3 roll moveto 0 rlineto
      0 exch rlineto 0 rlineto closepath } bind def
/S { stroke } bind def
/f { fill } bind def
/f* { eofill } bind def
/n { newpath } bind def
/W { clip } bind def
/W* { eoclip } bind def
/BT { } bind def
/ET { } bind def
/pdfmark where { pop globaldict /?pdfmark /exec load put }
    { globaldict begin /?pdfmark /pop load def /pdfmark
    /cleartomark load def end } ifelse
/BDC { mark 3 1 roll /BDC pdfmark } bind def
/EMC { mark /EMC pdfmark } bind def
/cairo_store_point { /cairo_point_y exch def /cairo_point_x exch def } def
/Tj { show currentpoint cairo_store_point } bind def
/TJ {
  {
    dup
    type /stringtype eq
    { show } { -0.001 mul 0 cairo_font_matrix dtransform rmoveto } ifelse
  } forall
  currentpoint cairo_store_point
} bind def
/cairo_selectfont { cairo_font_matrix aload pop pop pop 0 0 6 array astore
    cairo_font exch selectfont cairo_point_x cairo_point_y moveto } bind def
/Tf { pop /cairo_font exch def /cairo_font_matrix where
      { pop cairo_selectfont } if } bind def
/Td { matrix translate cairo_font_matrix matrix concatmatrix dup
      /cairo_font_matrix exch def dup 4 get exch 5 get cairo_store_point
      /cairo_font where { pop cairo_selectfont } if } bind def
/Tm { 2 copy 8 2 roll 6 array astore /cairo_font_matrix exch def
      cairo_store_point /cairo_font where { pop cairo_selectfont } if } bind def
/g { setgray } bind def
/rg { setrgbcolor } bind def
/d1 { setcachedevice } bind def
%%EndProlog
%%BeginSetup
%%EndSetup
%%Page: 1 1
%%BeginPageSetup
%%PageBoundingBox: 0 -1 1228 665
%%EndPageSetup
q 0 -1 1228 666 rectclip q
0 g
74.25 572.748 m 74.25 572.748 369.738 398.639 614 327.455 c 614 416.584
 l 80.68 617.209 l 2.816 661.287 l h
74.25 572.748 m f
5.636541 w
1 J
1 j
[] 0.0 d
4 M q 1 0 0 -1 0 664.103699 cm
74.25 91.355 m 74.25 91.355 369.738 265.465 614 336.648 c 614 247.52 l 
80.68 46.895 l 2.816 2.816 l h
74.25 91.355 m S Q
141.617 457.783 m 141.617 457.783 397.812 324.717 614 271.733 c 614 340.74
 l 128.68 505.971 l 62.164 538.498 l h
141.617 457.783 m f
5.637179 w
q 1 0 0 -1 0 664.103699 cm
141.617 206.32 m 141.617 206.32 397.813 339.387 614 392.371 c 614 323.363
 l 128.68 158.133 l 62.164 125.605 l h
141.617 206.32 m S Q
304.117 334.252 m 304.117 334.252 461.352 263.416 614 240.651 c 614 280.197
 l 303.965 363.733 l 242.25 387.061 l h
304.117 334.252 m f
5.636541 w
q 1 0 0 -1 0 664.103699 cm
304.117 329.852 m 304.117 329.852 461.352 400.688 614 423.453 c 614 383.906
 l 303.965 300.371 l 242.25 277.043 l h
304.117 329.852 m S Q
1 0.0156863 0.8 rg
62.75 538.127 m 139.879 474.733 l 140.539 473.444 466.57 380.334 466.57
 380.334 c 127.898 499.791 l 127.898 499.791 79.652 523.596 62.75 538.127
 c h
62.75 538.127 m f
3.184 661.104 m 82.031 587.537 l 82.691 586.248 418.523 482.377 418.523
 482.377 c 82.906 611.85 l 82.906 611.85 20.086 646.576 3.184 661.104 c 
h
3.184 661.104 m f
245.918 385.322 m 307.441 340.287 l 507.016 305.654 l 309.445 357.459 l
 309.445 357.459 246.168 383.604 245.918 385.322 c h
245.918 385.322 m f
0 g
1153.75 572.748 m 1153.75 572.748 858.262 398.639 614 327.455 c 614 416.584
 l 1147.32 617.209 l 1225.184 661.287 l h
1153.75 572.748 m f
q 1 0 0 -1 0 664.103699 cm
1153.75 91.355 m 1153.75 91.355 858.262 265.465 614 336.648 c 614 247.52
 l 1147.32 46.895 l 1225.184 2.816 l h
1153.75 91.355 m S Q
1086.383 457.783 m 1086.383 457.783 830.188 324.717 614 271.733 c 614 340.74
 l 1099.32 505.971 l 1165.836 538.498 l h
1086.383 457.783 m f
5.637179 w
q 1 0 0 -1 0 664.103699 cm
1086.383 206.32 m 1086.383 206.32 830.188 339.387 614 392.371 c 614 323.363
 l 1099.32 158.133 l 1165.836 125.605 l h
1086.383 206.32 m S Q
923.883 334.252 m 923.883 334.252 766.648 263.416 614 240.651 c 614 280.197
 l 924.035 363.733 l 985.746 387.061 l h
923.883 334.252 m f
5.636541 w
q 1 0 0 -1 0 664.103699 cm
923.883 329.852 m 923.883 329.852 766.648 400.688 614 423.453 c 614 383.906
 l 924.035 300.371 l 985.746 277.043 l h
923.883 329.852 m S Q
1 0.0156863 0.8 rg
1165.25 538.127 m 1088.121 474.733 l 1087.461 473.444 761.43 380.334 761.43
 380.334 c 1100.102 499.791 l 1100.102 499.791 1148.348 523.596 1165.25 
538.127 c h
1165.25 538.127 m f
1224.816 661.104 m 1145.969 587.537 l 1145.309 586.248 809.477 482.377 
809.477 482.377 c 1145.094 611.85 l 1145.094 611.85 1207.914 646.576 1224.816
 661.104 c h
1224.816 661.104 m f
982.082 385.322 m 920.559 340.287 l 720.984 305.654 l 918.555 357.459 l
 918.555 357.459 981.832 383.604 982.082 385.322 c h
982.082 385.322 m f
0 g
664.082 271.264 m 712.742 148.549 l 668.883 175.947 l 649.074 250.295 l
 685.258 99.19 l 643.75 136.678 l 633.453 207.537 l 647.992 90.108 l 614.016
 1.154 l 580.039 90.108 l 594.578 207.537 l 584.281 136.678 l 542.773 99.19
 l 578.957 250.295 l 559.148 175.947 l 515.289 148.549 l 563.945 271.264
 l f
1 g
2.307403 w
q 1 0 0 -1 0 664.103699 cm
664.082 392.84 m 712.742 515.555 l 668.883 488.156 l 649.074 413.809 l 
685.258 564.914 l 643.75 527.426 l 633.453 456.566 l 647.992 573.996 l 614.016
 662.949 l 580.039 573.996 l 594.578 456.566 l 584.281 527.426 l 542.773
 564.914 l 578.957 413.809 l 559.148 488.156 l 515.289 515.555 l 563.945
 392.84 l S Q
0.996078 g
6.033857 w
q 1 0 0 -1 0 664.103699 cm
705.742 166.164 m 740.629 222.211 733.637 300.445 689.613 346.641 c 645.59
 392.832 579.039 391.762 536.098 344.172 c 493.152 296.578 487.965 218.148
 524.129 163.246 c 614 245.953 l h
705.742 166.164 m S Q
0 g
705.742 497.94 m 740.629 441.893 733.637 363.658 689.613 317.463 c 645.59
 271.272 579.039 272.342 536.098 319.932 c 493.152 367.526 487.965 445.955
 524.129 500.858 c 614 418.151 l h
705.742 497.94 m f*
0.94902 0 0.556863 rg
511.332 529.951 m 464.207 482.826 487.449 378.76 614 344.901 c 740.551 
378.76 763.793 482.826 716.668 529.951 c 669.543 577.076 614.184 531.697
 614 496.119 c 613.816 531.697 558.457 577.076 511.332 529.951 c h
511.332 529.951 m f
0 g
4.851981 w
q 1 0 0 -1 0 664.103699 cm
511.332 134.152 m 464.207 181.277 487.449 285.344 614 319.203 c 740.551
 285.344 763.793 181.277 716.668 134.152 c 669.543 87.027 614.184 132.406
 614 167.984 c 613.816 132.406 558.457 87.027 511.332 134.152 c h
511.332 134.152 m S Q
1 0.235294 0.67451 rg
614.02 347.408 m 461.18 459.346 550.262 547.569 550.262 547.569 c 449.02
 506.287 511.105 375.213 614.02 347.408 c h
614.02 347.408 m f
0 0.94902 0.94902 rg
643.273 421.065 m 662.898 419.018 l 652.129 359.506 l 643.211 300.854 586.902
 317.584 595.984 351.764 c 613.273 346.35 l 610.836 338.194 625.438 335.494
 628.547 350.553 c h
643.273 421.065 m f*
0 g
2.420728 w
2 J
0 j
q 1 0 0 -1 0 664.103699 cm
643.273 243.039 m 662.898 245.086 l 652.129 304.598 l 643.211 363.25 586.902
 346.52 595.984 312.34 c 613.273 317.754 l 610.836 325.91 625.438 328.609
 628.547 313.551 c h
643.273 243.039 m S Q
0.411765 0.937255 0.972549 rg
682.223 398.252 m 681.262 393.061 663.957 388.791 646.004 392.115 c 628.051
 395.44 616.25 405.104 617.211 410.291 c 634.574 506.893 l 635.535 512.08
 650.871 513.592 668.824 510.268 c 686.777 506.944 700.551 500.041 699.59
 494.85 c h
682.223 398.252 m f*
0 g
3.557418 w
q 1 0 0 -1 0 664.103699 cm
682.223 265.852 m 681.262 271.043 663.957 275.313 646.004 271.988 c 628.051
 268.664 616.25 259 617.211 253.813 c 634.574 157.211 l 635.535 152.023 
650.871 150.512 668.824 153.836 c 686.777 157.16 700.551 164.063 699.59 
169.254 c h
682.223 265.852 m S Q
0 0.717647 0.741176 rg
699.402 495.752 m 698.645 491.67 683.086 489.303 666.953 492.291 c 650.824
 495.279 634.371 503.522 635.129 507.604 c 635.883 511.686 652.082 513.412
 668.215 510.428 c 684.344 507.44 700.156 499.834 699.402 495.752 c h
699.402 495.752 m f*
0 g
3.441644 w
q 1 0 0 -1 0 664.103699 cm
699.402 168.352 m 698.645 172.434 683.086 174.801 666.953 171.813 c 650.824
 168.824 634.371 160.582 635.129 156.5 c 635.883 152.418 652.082 150.691
 668.215 153.676 c 684.344 156.664 700.156 164.27 699.402 168.352 c h
699.402 168.352 m S Q
0 0.94902 0.94902 rg
666.555 549.94 m 676.148 593.647 729.504 577.865 712.703 534.889 c 712.703
 534.889 708.664 539.069 700.102 543.901 c 703.406 557.08 688.539 559.998
 686.457 548.729 c 677.355 498.924 l 674.23 495.483 658.398 499.143 657.918
 504.362 c h
666.555 549.94 m f*
0 g
2.420728 w
1 J
1 j
q 1 0 0 -1 0 664.103699 cm
666.555 114.164 m 676.148 70.457 729.504 86.238 712.703 129.215 c 712.703
 129.215 708.664 125.035 700.102 120.203 c 703.406 107.023 688.539 104.105
 686.457 115.375 c 677.355 165.18 l 674.23 168.621 658.398 164.961 657.918
 159.742 c h
666.555 114.164 m S Q
0.6 0.952941 0.976471 rg
643.148 498.373 m 652.328 493.951 661.098 491.826 661.098 491.826 c 643.859
 394.322 l 643.859 394.322 633.281 396.342 624.887 402.432 c h
643.148 498.373 m f*
0.513726 1 1 rg
659.133 504.334 m 660.137 500.67 669.555 498.858 669.609 499.033 c 670.824
 556.069 680.605 570.916 680.605 570.916 c 675.539 566.854 672.137 565.213
 668.824 553.904 c 666.258 545.151 664.082 530.658 659.133 504.334 c h
659.133 504.334 m f
Q Q
showpage
%%Trailer
end restore
%%EOF
