<?xml version="1.0" encoding="UTF-8" standalone="no"?>
<svg
   xmlns:dc="http://purl.org/dc/elements/1.1/"
   xmlns:cc="http://creativecommons.org/ns#"
   xmlns:rdf="http://www.w3.org/1999/02/22-rdf-syntax-ns#"
   xmlns:svg="http://www.w3.org/2000/svg"
   xmlns="http://www.w3.org/2000/svg"
   xmlns:sodipodi="http://sodipodi.sourceforge.net/DTD/sodipodi-0.dtd"
   xmlns:inkscape="http://www.inkscape.org/namespaces/inkscape"
   viewBox="0 0 112.67905 60.936956"
   height="60.936954mm"
   width="112.67905mm"
   version="1.1"
   id="svg4513"
   sodipodi:docname="LibreVAD.svg"
   inkscape:version="0.92.1 r15371">
  <metadata
     id="metadata4519">
    <rdf:RDF>
      <cc:Work
         rdf:about="">
        <dc:format>image/svg+xml</dc:format>
        <dc:type
           rdf:resource="http://purl.org/dc/dcmitype/StillImage" />
        <dc:title></dc:title>
      </cc:Work>
    </rdf:RDF>
  </metadata>
  <defs
     id="defs4517" />
  <sodipodi:namedview
     pagecolor="#ffffff"
     bordercolor="#666666"
     borderopacity="1"
     objecttolerance="10"
     gridtolerance="10"
     guidetolerance="10"
     inkscape:pageopacity="0"
     inkscape:pageshadow="2"
     inkscape:window-width="1366"
     inkscape:window-height="734"
     id="namedview4515"
     showgrid="false"
     inkscape:zoom="1"
     inkscape:cx="253.22078"
     inkscape:cy="55.360177"
     inkscape:window-x="0"
     inkscape:window-y="16"
     inkscape:window-maximized="0"
     inkscape:current-layer="svg4513"
     inkscape:snap-global="false"
     fit-margin-top="0"
     fit-margin-left="0"
     fit-margin-right="0"
     fit-margin-bottom="0"
     showguides="true"
     inkscape:guide-bbox="true" />
  <path
     style="stroke:#000000;stroke-width:0.5171988;stroke-linecap:round;stroke-linejoin:round"
     d="m 6.8129333,8.3824895 c 0,0 27.1136347,15.9759365 49.5265937,22.5078475 V 22.711893 L 7.4029019,4.3028037 0.25852012,0.25853607 Z"
     id="path4489"
     inkscape:connector-curvature="0"
     sodipodi:nodetypes="cccccc" />
  <path
     style="stroke:#000000;stroke-width:0.51725733;stroke-linecap:round;stroke-linejoin:round;stroke-miterlimit:4;stroke-dasharray:none"
     d="m 12.994549,18.931735 c 0,0 23.507833,12.20983 43.344978,17.071671 V 29.671149 L 11.80751,14.510028 5.704087,11.52524 Z"
     id="path4491"
     inkscape:connector-curvature="0"
     sodipodi:nodetypes="cccccc" />
  <path
     style="stroke:#000000;stroke-width:0.5171988;stroke-linecap:round;stroke-linejoin:round"
     d="m 27.905129,30.266655 c 0,0 14.427681,6.499843 28.434398,8.588628 V 35.226684 L 27.891314,27.561329 22.2286,25.420858 Z"
     id="path4493"
     inkscape:connector-curvature="0"
     sodipodi:nodetypes="cccccc" />
  <path
     style="fill:#ff04cc;stroke-width:1.05829298"
     d="m 5.7577783,11.559411 7.0771357,5.817076 C 12.895704,17.494767 42.811527,26.038 42.811527,26.038 L 11.735732,15.076955 c 0,0 -4.4269061,-2.184263 -5.9779537,-3.517544 z"
     id="path4599"
     inkscape:connector-curvature="0"
     sodipodi:nodetypes="ccccc" />
  <path
     inkscape:connector-curvature="0"
     style="fill:#ff04cc;stroke-width:1.05829298"
     d="M 0.29195159,0.27513007 7.5269641,7.0254199 C 7.5877508,7.143712 38.402949,16.674723 38.402949,16.674723 L 7.607406,4.7947499 c 0,0 -5.7644086,-3.1863508 -7.31545441,-4.51961983 z"
     id="path4597" />
  <path
     style="fill:#ff04cc;stroke-width:1.05829298"
     d="m 22.56495,25.580317 5.645271,4.132643 18.312689,3.177703 -18.128913,-4.753589 c 0,0 -5.806081,-2.398924 -5.829047,-2.556757 z"
     id="path4511"
     inkscape:connector-curvature="0"
     sodipodi:nodetypes="ccccc" />
  <path
     sodipodi:nodetypes="cccccc"
     inkscape:connector-curvature="0"
     id="path4780"
     d="m 105.86612,8.3824895 c 0,0 -27.113634,15.9759365 -49.526591,22.5078475 V 22.711893 L 105.27615,4.3028037 112.42053,0.25853607 Z"
     style="stroke:#000000;stroke-width:0.5171988;stroke-linecap:round;stroke-linejoin:round" />
  <path
     sodipodi:nodetypes="cccccc"
     inkscape:connector-curvature="0"
     id="path4782"
     d="m 99.684505,18.931735 c 0,0 -23.507833,12.20983 -43.344976,17.071671 v -6.332257 l 44.532021,-15.161121 6.10341,-2.984788 z"
     style="stroke:#000000;stroke-width:0.51725733;stroke-linecap:round;stroke-linejoin:round;stroke-miterlimit:4;stroke-dasharray:none" />
  <path
     sodipodi:nodetypes="cccccc"
     inkscape:connector-curvature="0"
     id="path4784"
     d="m 84.773929,30.266655 c 0,0 -14.427685,6.499843 -28.4344,8.588628 v -3.628599 l 28.448215,-7.665355 5.662709,-2.140471 z"
     style="stroke:#000000;stroke-width:0.5171988;stroke-linecap:round;stroke-linejoin:round" />
  <path
     sodipodi:nodetypes="ccccc"
     inkscape:connector-curvature="0"
     id="path4786"
     d="m 106.92128,11.559411 -7.077142,5.817076 C 99.78331,17.494767 69.867526,26.038 69.867526,26.038 L 100.94332,15.076955 c 0,0 4.42691,-2.184263 5.97796,-3.517544 z"
     style="fill:#ff04cc;stroke-width:1.05829298" />
  <path
     id="path4788"
     d="M 112.3871,0.27513007 105.15209,7.0254199 C 105.09126,7.143712 74.276104,16.674723 74.276104,16.674723 L 105.07165,4.7947499 c 0,0 5.76441,-3.1863508 7.31545,-4.51961983 z"
     style="fill:#ff04cc;stroke-width:1.05829298"
     inkscape:connector-curvature="0" />
  <path
     sodipodi:nodetypes="ccccc"
     inkscape:connector-curvature="0"
     id="path4790"
     d="m 90.114104,25.580317 -5.64527,4.132643 -18.31269,3.177703 18.128913,-4.753589 c 0,0 5.806081,-2.398924 5.829047,-2.556757 z"
     style="fill:#ff04cc;stroke-width:1.05829298" />
  <path
     id="path4583"
     d="m 60.935127,36.046187 4.464807,11.260247 -4.024521,-2.51406 -1.817652,-6.822136 3.320083,13.865118 -3.808512,-3.439737 -0.944867,-6.501813 1.334005,10.774882 -3.11755,8.162422 -3.117549,-8.162422 1.334004,-10.774882 -0.944866,6.501813 -3.808512,3.439737 3.320083,-13.865118 -1.817652,6.822136 -4.024519,2.51406 4.464805,-11.260247"
     style="stroke:#ffffff;stroke-width:0.21172309;stroke-linecap:round;stroke-linejoin:round"
     inkscape:connector-curvature="0"
     sodipodi:nodetypes="ccccccccccccccccc" />
  <path
     style="fill-rule:evenodd;stroke:#fefefe;stroke-width:0.5536558;stroke-linecap:round;stroke-linejoin:round;paint-order:markers stroke fill"
     inkscape:connector-curvature="0"
     d="M 64.757518,15.246998 A 10.451152,12.353585 0 0 1 63.277706,31.80698 10.451152,12.353585 0 0 1 49.191303,31.580473 10.451152,12.353585 0 0 1 48.093146,14.979026 l 8.246381,7.58932 z"
     id="path4497" />
  <path
     style="fill:#f2008e;stroke:#000000;stroke-width:0.445209;stroke-linecap:round;stroke-linejoin:round"
     inkscape:connector-curvature="0"
     d="m 46.918881,12.309701 c -4.324089,4.32407 -2.19151,13.872898 9.420646,16.979888 11.61215,-3.10699 13.744729,-12.655818 9.420634,-16.979888 -4.324086,-4.3240893 -9.403947,-0.160298 -9.420634,3.104132 -0.01674,-3.26443 -5.096566,-7.4282213 -9.420646,-3.104132 z"
     id="path4499" />
  <path
     style="fill:#ff3cac;stroke-width:1.05829298"
     inkscape:connector-curvature="0"
     d="M 56.341456,29.05941 C 42.316956,18.788222 50.490849,10.693117 50.490849,10.693117 41.201248,14.48098 46.89808,26.507961 56.341456,29.05941 Z"
     id="path4509" />
  <path
     d="m 59.025591,22.300897 1.800827,0.187645 -0.98816,5.460654 c -0.818232,5.382012 -5.985267,3.846769 -5.151639,0.710602 l 1.58633,0.496636 c -0.223713,0.748561 1.116008,0.996108 1.40147,-0.385706 z"
     id="path4501"
     inkscape:connector-curvature="0"
     style="fill:#00f2f2;fill-rule:evenodd;stroke:#000000;stroke-width:0.22212164;stroke-linecap:square;paint-order:markers fill stroke"
     sodipodi:nodetypes="ccccccc" />
  <path
     inkscape:connector-curvature="0"
     d="m 62.599693,24.394169 c -0.08817,0.476209 -1.676045,0.868149 -3.323396,0.563044 -1.647345,-0.305097 -2.730395,-1.191703 -2.642209,-1.667903 l 1.59344,-8.863817 c 0.08817,-0.476188 1.495144,-0.614888 3.142501,-0.309783 1.647351,0.305106 2.911302,0.938463 2.823109,1.414653 z"
     id="path4503"
     style="fill:#69eff8;fill-opacity:1;fill-rule:evenodd;stroke:#000000;stroke-width:0.32642221;stroke-linecap:square;paint-order:markers fill stroke" />
  <path
     style="fill:#00b7bd;fill-rule:evenodd;stroke:#000000;stroke-width:0.315799;stroke-linecap:square;paint-order:markers fill stroke"
     inkscape:connector-curvature="0"
     d="m 64.175851,15.447604 c -0.06944,0.374582 -1.497295,0.591701 -2.977329,0.317583 -1.480034,-0.274119 -2.989621,-1.030502 -2.920263,-1.405074 0.06934,-0.374583 1.555769,-0.533053 3.035813,-0.258933 1.480054,0.274129 2.931165,0.971851 2.861779,1.346424 z"
     id="path4505" />
  <path
     d="m 61.161999,10.475606 c 0.880082,-4.0104543 5.776049,-2.5624557 4.234293,1.380935 0,0 -0.370466,-0.383419 -1.156412,-0.826813 0.303294,-1.2094173 -1.060675,-1.47726 -1.251959,-0.443128 l -0.835018,4.570101 C 61.866171,15.472335 60.4134,15.136483 60.369206,14.65763 Z"
     id="path4507"
     inkscape:connector-curvature="0"
     style="fill:#00f2f2;fill-rule:evenodd;stroke:#000000;stroke-width:0.22212164;stroke-linecap:round;stroke-linejoin:round;paint-order:markers fill stroke"
     sodipodi:nodetypes="ccccccc" />
  <path
     sodipodi:nodetypes="ccccc"
     style="fill:#99f3f9;fill-opacity:1;fill-rule:evenodd;stroke:none;stroke-width:0.22212164;stroke-linecap:round;stroke-linejoin:round;paint-order:markers fill stroke"
     inkscape:connector-curvature="0"
     id="path4521"
     d="m 59.01425,15.207122 c 0.84234,0.405849 1.64704,0.600643 1.64704,0.600643 l -1.581961,8.946996 c 0,0 -0.970722,-0.185256 -1.740814,-0.744259 z" />
  <path
     style="opacity:1;vector-effect:none;fill:#83ffff;fill-opacity:1;stroke:none;stroke-width:0.65166283;stroke-linecap:round;stroke-linejoin:round;stroke-miterlimit:4;stroke-dasharray:none;stroke-dashoffset:0;stroke-opacity:1"
     d="m 60.480765,14.660223 c 0.09231,0.336225 0.956523,0.502442 0.96153,0.486486 0.111179,-5.2335161 1.008947,-6.5960892 1.008947,-6.5960892 -0.464823,0.3729316 -0.77733,0.5233231 -1.081272,1.5609072 -0.235385,0.803543 -0.435135,2.133082 -0.889205,4.548696 z"
     id="path4794"
     inkscape:connector-curvature="0"
     sodipodi:nodetypes="cccsc" />
</svg>
