%!PS-Adobe-3.0 EPSF-3.0
%%Creator: cairo 1.14.8 (http://cairographics.org)
%%CreationDate: Sun Mar 24 16:28:03 2019
%%Pages: 1
%%DocumentData: Clean7Bit
%%LanguageLevel: 2
%%BoundingBox: 0 -1 491 266
%%EndComments
%%BeginProlog
save
50 dict begin
/q { gsave } bind def
/Q { grestore } bind def
/cm { 6 array astore concat } bind def
/w { setlinewidth } bind def
/J { setlinecap } bind def
/j { setlinejoin } bind def
/M { setmiterlimit } bind def
/d { setdash } bind def
/m { moveto } bind def
/l { lineto } bind def
/c { curveto } bind def
/h { closepath } bind def
/re { exch dup neg 3 1 roll 5 3 roll moveto 0 rlineto
      0 exch rlineto 0 rlineto closepath } bind def
/S { stroke } bind def
/f { fill } bind def
/f* { eofill } bind def
/n { newpath } bind def
/W { clip } bind def
/W* { eoclip } bind def
/BT { } bind def
/ET { } bind def
/pdfmark where { pop globaldict /?pdfmark /exec load put }
    { globaldict begin /?pdfmark /pop load def /pdfmark
    /cleartomark load def end } ifelse
/BDC { mark 3 1 roll /BDC pdfmark } bind def
/EMC { mark /EMC pdfmark } bind def
/cairo_store_point { /cairo_point_y exch def /cairo_point_x exch def } def
/Tj { show currentpoint cairo_store_point } bind def
/TJ {
  {
    dup
    type /stringtype eq
    { show } { -0.001 mul 0 cairo_font_matrix dtransform rmoveto } ifelse
  } forall
  currentpoint cairo_store_point
} bind def
/cairo_selectfont { cairo_font_matrix aload pop pop pop 0 0 6 array astore
    cairo_font exch selectfont cairo_point_x cairo_point_y moveto } bind def
/Tf { pop /cairo_font exch def /cairo_font_matrix where
      { pop cairo_selectfont } if } bind def
/Td { matrix translate cairo_font_matrix matrix concatmatrix dup
      /cairo_font_matrix exch def dup 4 get exch 5 get cairo_store_point
      /cairo_font where { pop cairo_selectfont } if } bind def
/Tm { 2 copy 8 2 roll 6 array astore /cairo_font_matrix exch def
      cairo_store_point /cairo_font where { pop cairo_selectfont } if } bind def
/g { setgray } bind def
/rg { setrgbcolor } bind def
/d1 { setcachedevice } bind def
%%EndProlog
%%BeginSetup
%%EndSetup
%%Page: 1 1
%%BeginPageSetup
%%PageBoundingBox: 0 -1 491 266
%%EndPageSetup
q 0 -1 491 267 rectclip q
0 g
29.637 228.607 m 29.637 228.607 147.574 159.111 245.07 130.7 c 245.07 166.275
 l 32.203 246.353 l 1.125 263.943 l h
29.637 228.607 m f
2.249745 w
1 J
1 j
[] 0.0 d
4 M q 1 0 0 -1 0 265.067566 cm
29.637 36.461 m 29.637 36.461 147.574 105.957 245.07 134.367 c 245.07 98.793
 l 32.203 18.715 l 1.125 1.125 l h
29.637 36.461 m S Q
56.523 182.716 m 56.523 182.716 158.781 129.607 245.07 108.458 c 245.07
 136.001 l 51.359 201.95 l 24.812 214.935 l h
56.523 182.716 m f
2.25 w
q 1 0 0 -1 0 265.067566 cm
56.523 82.352 m 56.523 82.352 158.781 135.461 245.07 156.609 c 245.07 129.066
 l 51.359 63.117 l 24.812 50.133 l h
56.523 82.352 m S Q
121.383 133.411 m 121.383 133.411 184.141 105.138 245.07 96.052 c 245.07
 111.837 l 121.324 145.181 l 96.691 154.489 l h
121.383 133.411 m f
2.249745 w
q 1 0 0 -1 0 265.067566 cm
121.383 131.656 m 121.383 131.656 184.141 159.93 245.07 169.016 c 245.07
 153.23 l 121.324 119.887 l 96.691 110.578 l h
121.383 131.656 m S Q
1 0.0156863 0.8 rg
25.047 214.786 m 55.832 189.482 l 56.094 188.966 186.223 151.806 186.223
 151.806 c 51.051 199.486 l 51.051 199.486 31.793 208.986 25.047 214.786
 c h
25.047 214.786 m f
1.27 263.872 m 32.742 234.509 l 33.004 233.993 167.047 192.536 167.047 
192.536 c 33.09 244.212 l 33.09 244.212 8.016 258.071 1.27 263.872 c h
1.27 263.872 m f
98.156 153.798 m 122.711 135.821 l 202.367 121.997 l 123.512 142.677 l 
123.512 142.677 98.254 153.111 98.156 153.798 c h
98.156 153.798 m f
0 g
460.504 228.607 m 460.504 228.607 342.562 159.111 245.07 130.7 c 245.07
 166.275 l 457.938 246.353 l 489.016 263.943 l h
460.504 228.607 m f
q 1 0 0 -1 0 265.067566 cm
460.504 36.461 m 460.504 36.461 342.562 105.957 245.07 134.367 c 245.07
 98.793 l 457.938 18.715 l 489.016 1.125 l h
460.504 36.461 m S Q
433.613 182.716 m 433.613 182.716 331.359 129.607 245.07 108.458 c 245.07
 136.001 l 438.777 201.95 l 465.328 214.935 l h
433.613 182.716 m f
2.25 w
q 1 0 0 -1 0 265.067566 cm
433.613 82.352 m 433.613 82.352 331.359 135.461 245.07 156.609 c 245.07
 129.066 l 438.777 63.117 l 465.328 50.133 l h
433.613 82.352 m S Q
368.754 133.411 m 368.754 133.411 305.996 105.138 245.07 96.052 c 245.07
 111.837 l 368.816 145.181 l 393.449 154.489 l h
368.754 133.411 m f
2.249745 w
q 1 0 0 -1 0 265.067566 cm
368.754 131.656 m 368.754 131.656 305.996 159.93 245.07 169.016 c 245.07
 153.23 l 368.816 119.887 l 393.449 110.578 l h
368.754 131.656 m S Q
1 0.0156863 0.8 rg
465.094 214.786 m 434.309 189.482 l 434.043 188.966 303.914 151.806 303.914
 151.806 c 439.09 199.486 l 439.09 199.486 458.348 208.986 465.094 214.786
 c h
465.094 214.786 m f
488.867 263.872 m 457.398 234.509 l 457.133 233.993 323.09 192.536 323.09
 192.536 c 457.047 244.212 l 457.047 244.212 482.121 258.071 488.867 263.872
 c h
488.867 263.872 m f
391.984 153.798 m 367.43 135.821 l 287.77 121.997 l 366.629 142.677 l 366.629
 142.677 391.883 153.111 391.984 153.798 c h
391.984 153.798 m f
0 g
265.059 108.271 m 284.48 59.29 l 266.977 70.228 l 259.066 99.904 l 273.512
 39.591 l 256.945 54.552 l 252.832 82.833 l 258.637 35.966 l 245.074 0.462
 l 231.516 35.966 l 237.316 82.833 l 233.207 54.552 l 216.641 39.591 l 231.082
 99.904 l 223.176 70.228 l 205.672 59.29 l 225.09 108.271 l f
1 g
0.920967 w
q 1 0 0 -1 0 265.067566 cm
265.059 156.797 m 284.48 205.777 l 266.977 194.84 l 259.066 165.164 l 273.512
 225.477 l 256.945 210.516 l 252.832 182.234 l 258.637 229.102 l 245.074
 264.605 l 231.516 229.102 l 237.316 182.234 l 233.207 210.516 l 216.641
 225.477 l 231.082 165.164 l 223.176 194.84 l 205.672 205.777 l 225.09 156.797
 l S Q
0.996078 g
2.408328 w
q 1 0 0 -1 0 265.067566 cm
281.688 66.324 m 295.609 88.691 292.82 119.918 275.25 138.355 c 257.68 
156.793 231.117 156.367 213.977 137.371 c 196.836 118.375 194.766 87.07 
209.199 65.156 c 245.07 98.168 l h
281.688 66.324 m S Q
0 g
281.688 198.743 m 295.609 176.376 292.82 145.15 275.25 126.712 c 257.68
 108.275 231.117 108.7 213.977 127.696 c 196.836 146.693 194.766 177.997
 209.199 199.911 c 245.07 166.9 l h
281.688 198.743 m f*
0.94902 0 0.556863 rg
204.09 211.521 m 185.281 192.712 194.559 151.177 245.07 137.661 c 295.582
 151.177 304.855 192.712 286.047 211.521 c 267.238 230.329 245.141 212.22
 245.07 198.021 c 244.996 212.22 222.898 230.329 204.09 211.521 c h
204.09 211.521 m f
0 g
1.936599 w
q 1 0 0 -1 0 265.067566 cm
204.09 53.547 m 185.281 72.355 194.559 113.891 245.07 127.406 c 295.582
 113.891 304.855 72.355 286.047 53.547 c 267.238 34.738 245.141 52.848 245.07
 67.047 c 244.996 52.848 222.898 34.738 204.09 53.547 c h
204.09 53.547 m S Q
1 0.235294 0.67451 rg
245.078 138.661 m 184.074 183.341 219.629 218.556 219.629 218.556 c 179.219
 202.075 204 149.763 245.078 138.661 c h
245.078 138.661 m f
0 0.94902 0.94902 rg
256.754 168.06 m 264.586 167.247 l 260.289 143.493 l 256.73 120.083 234.254
 126.759 237.879 140.4 c 244.781 138.239 l 243.809 134.986 249.633 133.907
 250.875 139.919 c h
256.754 168.06 m f*
0 g
0.966199 w
2 J
0 j
q 1 0 0 -1 0 265.067566 cm
256.754 97.008 m 264.586 97.82 l 260.289 121.574 l 256.73 144.984 234.254
 138.309 237.879 124.668 c 244.781 126.828 l 243.809 130.082 249.633 131.16
 250.875 125.148 c h
256.754 97.008 m S Q
0.411765 0.937255 0.972549 rg
272.301 158.954 m 271.918 156.884 265.008 155.181 257.844 156.509 c 250.68
 157.833 245.969 161.693 246.352 163.763 c 253.281 202.318 l 253.664 204.392
 259.785 204.993 266.953 203.665 c 274.117 202.337 279.613 199.583 279.23
 197.513 c h
272.301 158.954 m f*
0 g
1.419893 w
q 1 0 0 -1 0 265.067566 cm
272.301 106.113 m 271.918 108.184 265.008 109.887 257.844 108.559 c 250.68
 107.234 245.969 103.375 246.352 101.305 c 253.281 62.75 l 253.664 60.676
 259.785 60.074 266.953 61.402 c 274.117 62.73 279.613 65.484 279.23 67.555
 c h
272.301 106.113 m S Q
0 0.717647 0.741176 rg
279.156 197.872 m 278.855 196.243 272.645 195.298 266.207 196.489 c 259.766
 197.685 253.199 200.974 253.504 202.603 c 253.805 204.232 260.27 204.923
 266.707 203.728 c 273.145 202.536 279.457 199.501 279.156 197.872 c h
279.156 197.872 m f*
0 g
1.373683 w
q 1 0 0 -1 0 265.067566 cm
279.156 67.195 m 278.855 68.824 272.645 69.77 266.207 68.578 c 259.766 
67.383 253.199 64.094 253.504 62.465 c 253.805 60.836 260.27 60.145 266.707
 61.34 c 273.145 62.531 279.457 65.566 279.156 67.195 c h
279.156 67.195 m S Q
0 0.94902 0.94902 rg
266.047 219.501 m 269.875 236.946 291.172 230.646 284.465 213.493 c 284.465
 213.493 282.855 215.161 279.434 217.091 c 280.754 222.349 274.82 223.517
 273.988 219.017 c 270.355 199.138 l 269.109 197.767 262.789 199.228 262.598
 201.31 c h
266.047 219.501 m f*
0 g
0.966199 w
1 J
1 j
q 1 0 0 -1 0 265.067566 cm
266.047 45.566 m 269.875 28.121 291.172 34.422 284.465 51.574 c 284.465
 51.574 282.855 49.906 279.434 47.977 c 280.754 42.719 274.82 41.551 273.988
 46.051 c 270.355 65.93 l 269.109 67.301 262.789 65.84 262.598 63.758 c 
h
266.047 45.566 m S Q
0.6 0.952941 0.976471 rg
256.703 198.919 m 260.367 197.154 263.867 196.306 263.867 196.306 c 256.988
 157.388 l 256.988 157.388 252.766 158.193 249.414 160.626 c h
256.703 198.919 m f*
0.513726 1 1 rg
263.082 201.298 m 263.484 199.833 267.242 199.111 267.266 199.181 c 267.75
 221.946 271.656 227.872 271.656 227.872 c 269.633 226.251 268.273 225.599
 266.949 221.083 c 265.926 217.587 265.059 211.806 263.082 201.298 c h
263.082 201.298 m f
Q Q
showpage
%%Trailer
end restore
%%EOF
